jbiadmin01503 : Test Component Upgrade.
install test-component
Installed component manage-binding-1.
try to upgrade with a wrong archive
Upgrading a component
IGNORE  jmx connection info: (host=localhost, port=4951, secure=false, username=admin)
  name=manage-binding-1
IGNORE  file=C:/work/cygwin/home/annies/external/open-esb/runtime/esb-manage/bld/test-classes/dist/component-binding2.jar

BUILD FAILED
IGNORE C:\work\cygwin\gf\jbi\bin\jbi_admin.xml:471: Upgrade component failed. [
JBIMA1341: Component name in the archive provided does not match component selected for upgrade.
]

IGNORE Total time: 0 seconds
start the component
Started component manage-binding-1.
try to upgrade a running component
Upgrading a component
IGNORE  jmx connection info: (host=localhost, port=4951, secure=false, username=admin)
  name=manage-binding-1
IGNORE  file=C:/work/cygwin/home/annies/external/open-esb/runtime/esb-manage/bld/test-classes/dist/component-binding1.jar

BUILD FAILED
IGNORE C:\work\cygwin\gf\jbi\bin\jbi_admin.xml:471: Upgrade component failed. [
JBIMA1341: Component manage-binding-1 is not shutdown in instance server.
]

IGNORE Total time: 0 seconds
shutdown the component
Shut Down component manage-binding-1.
try to upgrade with a dir
Upgrading a component
IGNORE  jmx connection info: (host=localhost, port=4951, secure=false, username=admin)
  name=manage-bindng-1
IGNORE  file=C:/work/cygwin/home/annies/external/open-esb/runtime/esb-manage/bld/test-classes/dist

BUILD FAILED
IGNORE C:\work\cygwin\gf\jbi\bin\jbi_admin.xml:471: Upgrade component failed. [
  ERROR:(UIANT2037)Component archive file path cannot be a directory.
]

IGNORE Total time: 0 seconds
try to upgrade with a SA
Upgrading a component
IGNORE  jmx connection info: (host=localhost, port=4951, secure=false, username=admin)
  name=manage-binding-1
IGNORE  file=C:/work/cygwin/home/annies/external/open-esb/runtime/esb-manage/bld/test-classes/dist/deploy-sa.jar

BUILD FAILED
IGNORE C:\work\cygwin\gf\jbi\bin\jbi_admin.xml:471: Upgrade component failed. [
IGNORE  ERROR:(JBIMA1700)Invalid installation descriptor in archive C:\work\cygwin\home\annies\external\open-esb\runtime\esb-manage\bld\test-classes\dist\deploy-sa.jar: jbi.xml file does not describe a component.
]

IGNORE Total time: 0 seconds
uninstall the component
Uninstalled component manage-binding-1.
