jbiadmin00137 : Test deploy and life cycle operations for a service assembly with zero service units
Deploying a service assembly
IGNORE  jmx connection info: (host=localhost, port=6951, secure=true, username=admin, target=server )
IGNORE  file=/export/dev/nikita/jsr208/jnet/open-esb/runtime/esb-manage/bld/test-classes/testdata/empty-service-assembly.zip
Service assembly deployment succeeded. [
MyBinding_TestSA
]

BUILD SUCCESSFUL
IGNORE Total time: 4 seconds
============================================================
  List of Service Assemblies for Target "server"
============================================================
Name       : MyBinding_TestSA
State      : Shutdown
Description: This is a test Service Assembly to test MyBinding 
Service units in this service assembly [0]
------------------------------------------------------------

BUILD SUCCESSFUL
IGNORE Total time: 3 seconds
Starting a service assembly
IGNORE jmx connection info: (host=localhost, port=6951, secure=true, username=admin, target=server )
IGNORE  name=MyBinding_TestSA
Start service assembly succeeded. [
MyBinding_TestSA
]

BUILD SUCCESSFUL
IGNORE Total time: 3 seconds
============================================================
  List of Service Assemblies for Target "server"
============================================================
Name       : MyBinding_TestSA
State      : Started
Description: This is a test Service Assembly to test MyBinding 
Service units in this service assembly [0]
------------------------------------------------------------

BUILD SUCCESSFUL
IGNORE Total time: 3 seconds
Starting a service assembly
IGNORE jmx connection info: (host=localhost, port=6951, secure=true, username=admin, target=server )
IGNORE name=MyBinding_TestSA
Start service assembly succeeded. [
MyBinding_TestSA
]

BUILD SUCCESSFUL
IGNORE Total time: 3 seconds
============================================================
  List of Service Assemblies for Target "server"
============================================================
Name       : MyBinding_TestSA
State      : Started
Description: This is a test Service Assembly to test MyBinding 
Service units in this service assembly [0]
------------------------------------------------------------

BUILD SUCCESSFUL
IGNORE Total time: 3 seconds
Stopping a service assembly
IGNORE jmx connection info: (host=localhost, port=6951, secure=true, username=admin, target=server )
IGNORE name=MyBinding_TestSA
Stop service assembly succeeded. [
MyBinding_TestSA
]

BUILD SUCCESSFUL
IGNORE Total time: 3 seconds
============================================================
  List of Service Assemblies for Target "server"
============================================================
Name       : MyBinding_TestSA
State      : Stopped
Description: This is a test Service Assembly to test MyBinding 
Service units in this service assembly [0]
------------------------------------------------------------

BUILD SUCCESSFUL
IGNORE Total time: 3 seconds
Shutting down a service assembly
IGNORE jmx connection info: (host=localhost, port=6951, secure=true, username=admin, target=server )
IGNORE name=MyBinding_TestSA
Shutdown service assembly succeeded. [
MyBinding_TestSA
]

BUILD SUCCESSFUL
IGNORE Total time: 3 seconds
============================================================
  List of Service Assemblies for Target "server"
============================================================
Name       : MyBinding_TestSA
State      : Shutdown
Description: This is a test Service Assembly to test MyBinding 
Service units in this service assembly [0]
------------------------------------------------------------

BUILD SUCCESSFUL
IGNORE Total time: 3 seconds
Undeploying a service assembly
IGNORE jmx connection info: (host=localhost, port=6951, secure=true, username=admin, target=server )
IGNORE name=MyBinding_TestSA
Service assembly undeployment succeeded. [
MyBinding_TestSA
]

BUILD SUCCESSFUL
IGNORE Total time: 3 seconds
============================================================
  List of Service Assemblies for Target "server"
============================================================
No Service Assemblies were found for the specified query.
------------------------------------------------------------

BUILD SUCCESSFUL
IGNORE Total time: 3 seconds
