jbiadmin00125 : Install a component, shutdown normally, then shutdown forcefully
IGNORE JBI_HOME is D:/nikita/dev/jsr208/main/open-esb/install/as8/jbi
IGNORE JBI_DOMAIN_ROOT is D:/nikita/dev/jsr208/main/open-esb/install/as8/domains/CAS
IGNORE jbi_instance_name is server
IGNORE jmx.provider is service:jmx:rmi:///jndi/rmi://Mystique01:10789/management/rmi-jmx-connector

BUILD SUCCESSFUL
IGNORE Total time: 1 second
Installing a component
IGNORE   jmx connection info: (host=localhost, port=6951, secure=true, username=admin, target=server )
IGNORE   file=D:/nikita/dev/jsr208/main/open-esb/runtime/esb-manage/bld/test-classes/dist/bad-shutdown-binding.jar
Install component succeeded. [
manage-binding-1
]

BUILD SUCCESSFUL
IGNORE Total time: 3 seconds
Starting a component
IGNORE   jmx connection info: (host=localhost, port=6951, secure=true, username=admin, target=server )
IGNORE   name=manage-binding-1
Start component succeeded. [
manage-binding-1
]

BUILD SUCCESSFUL
IGNORE Total time: 2 seconds
Stopping a component
IGNORE   jmx connection info: (host=localhost, port=6951, secure=true, username=admin, target=server )
IGNORE   name=manage-binding-1
Stop component succeeded. [
manage-binding-1
]

BUILD SUCCESSFUL
Total time: 2 seconds
Shutting down a component
IGNORE   jmx connection info: (host=localhost, port=6951, secure=true, username=admin, target=server )
IGNORE   name=manage-binding-1
Shutdown component failed. [
  ERROR:(JBIFW1169)Binding manage-binding-1 cannot be shut down. The LifeCycle shutDown() method threw a javax.jbi.JBIException exception.
    Caused by:(JBIMA0000)<component-task-result xmlns="http://java.sun.com/xml/ns/jbi/management-message"><component-name>manage-binding-1</component-name><component-task-result-details><task-result-details><task-id>shutDown</task-id><task-result>FAILED</task-result><message-type>ERROR</message-type><task-status-msg><msg-loc-info><loc-token>JBIWHOOPS</loc-token><loc-message>Component shutDown failed</loc-message></msg-loc-info></task-status-msg></task-result-details></component-task-result-details></component-task-result>
]

BUILD SUCCESSFUL
IGNORE Total time: 2 seconds
IGNORE JBI_HOME is D:/nikita/dev/jsr208/main/open-esb/install/as8/jbi
IGNORE JBI_DOMAIN_ROOT is D:/nikita/dev/jsr208/main/open-esb/install/as8/domains/CAS
IGNORE jbi_instance_name is server
IGNORE jmx.provider is service:jmx:rmi:///jndi/rmi://Mystique01:10789/management/rmi-jmx-connector
##### Result of shutDown = 

BUILD SUCCESSFUL
IGNORE Total time: 3 seconds
Uninstalling a component
IGNORE   jmx connection info: (host=localhost, port=6951, secure=true, username=admin, target=server )
IGNORE   name=manage-binding-1
Uninstall component succeeded. [
manage-binding-1
]

BUILD SUCCESSFUL
IGNORE Total time: 2 seconds
