testname is jbiadmin01300
Creating cluster : cluster1
Command create-cluster executed successfully.
Creating instance : cluster1-instance1
Starting instance : cluster1-instance1
Command start-instance executed successfully.
Creating instance : cluster1-instance2
Starting instance : cluster1-instance2
Command start-instance executed successfully.
