Command create-node-agent executed successfully.
Command create-cluster executed successfully.
Command create-instance executed successfully.
Using 38,081 for HTTP_LISTENER_PORT.
Using 38,182 for HTTP_SSL_LISTENER_PORT.
Using 33,821 for IIOP_SSL_LISTENER_PORT.
IGNORE Using 37,678 for JMS_PROVIDER_PORT.
Using 33,701 for IIOP_LISTENER_PORT.
Using 38,687 for JMX_SYSTEM_CONNECTOR_PORT.
Using 33,921 for IIOP_SSL_MUTUALAUTH_PORT.
Command create-instance executed successfully.
IGNORE Redirecting output to C:/cygwin/home/yz72237/build/open-esb/install/as8/nodeagents/ant_agent/agent/logs/server.log
IGNORE Redirecting application output to C:/cygwin/home/yz72237/build/open-esb/install/as8/nodeagents/ant_agent/agent/logs/server.log
IGNORE Redirecting output to C:/cygwin/home/yz72237/build/open-esb/install/as8/nodeagents/ant_agent/instance11/logs/server.log
IGNORE Redirecting output to C:/cygwin/home/yz72237/build/open-esb/install/as8/nodeagents/ant_agent/instance13/logs/server.log
Command start-node-agent executed successfully.
