testname is manage00513
Before first autoinstall ...
[jbi-list-shared-libraries] ============================================================
[jbi-list-shared-libraries]   List of Shared Libraries for Target "server"
[jbi-list-shared-libraries] ============================================================
[jbi-list-shared-libraries] There is no shared library found with the name = b3c97e99-bcb2-4ee0-95e4-60e1cf1408aa
[jbi-list-shared-libraries]  and with other query parameters specified.
[jbi-list-shared-libraries] ------------------------------------------------------------

BUILD SUCCESSFUL
IGNORE Total time: 1 second
IGNORE File count: /blueman2/d/open-esb2/open-esb/install/jbise/jbi/server/jbi/autoinstall
IGNORE        1
IGNORE File count: /blueman2/d/open-esb2/open-esb/install/jbise/jbi/server/jbi/autoinstall/.autoinstallstatus
       0
autoinstalled area success files
       0
       0
autoinstalled area failed files
       0
       0
recursive listing
Copying component and shared library installers into autoinstall directory.
[jbi-list-shared-libraries] ============================================================
[jbi-list-shared-libraries]   List of Shared Libraries for Target "server"
[jbi-list-shared-libraries] ============================================================
[jbi-list-shared-libraries] Name       : b3c97e99-bcb2-4ee0-95e4-60e1cf1408aa
[jbi-list-shared-libraries] State      : Installed
[jbi-list-shared-libraries] Description: This is a shared library.
[jbi-list-shared-libraries] ------------------------------------------------------------

BUILD SUCCESSFUL
IGNORE Total time: 1 second
IGNORE File count: /blueman2/d/open-esb2/open-esb/install/jbise/jbi/server/jbi/autoinstall
       5
IGNORE File count: /blueman2/d/open-esb2/open-esb/install/jbise/jbi/server/jbi/autoinstall/.autoinstallstatus
       4
autoinstalled area success files
       2
       0
autoinstalled area failed files
       0
       0
recursive listing
./.autoinstallstatus/calc.jar
./.autoinstallstatus/calc.jar--comp--JbiCalculator
./.autoinstallstatus/sns1.jar
./.autoinstallstatus/sns1.jar--sl--b3c97e99-bcb2-4ee0-95e4-60e1cf1408aa
./calc.jar
./calc.jar_installed
./sns1.jar
./sns1.jar_installed
manually uninstalling components
[i18n-echo] Uninstalling a shared library
IGNORE [i18n-echo]   jmx connection info: (host=localhost, port=8699, secure=false, username=admin, target=server )
[i18n-echo]   name=b3c97e99-bcb2-4ee0-95e4-60e1cf1408aa
[jbi-uninstall-shared-library] Uninstall shared library succeeded. [
[jbi-uninstall-shared-library] b3c97e99-bcb2-4ee0-95e4-60e1cf1408aa
[jbi-uninstall-shared-library] ]

BUILD SUCCESSFUL
IGNORE Total time: 1 second
[i18n-echo] Uninstalling a component
IGNORE [i18n-echo]   jmx connection info: (host=localhost, port=8699, secure=false, username=admin, target=server )
[i18n-echo]   name=JbiCalculator
[jbi-list-shared-libraries] ============================================================
[jbi-list-shared-libraries]   List of Shared Libraries for Target "server"
[jbi-list-shared-libraries] ============================================================
[jbi-list-shared-libraries] There is no shared library found with the name = b3c97e99-bcb2-4ee0-95e4-60e1cf1408aa
[jbi-list-shared-libraries]  and with other query parameters specified.
[jbi-list-shared-libraries] ------------------------------------------------------------

BUILD SUCCESSFUL
IGNORE Total time: 1 second
IGNORE File count: /blueman2/d/open-esb2/open-esb/install/jbise/jbi/server/jbi/autoinstall
       5
IGNORE File count: /blueman2/d/open-esb2/open-esb/install/jbise/jbi/server/jbi/autoinstall/.autoinstallstatus
       4
autoinstalled area success files
       2
       0
autoinstalled area failed files
       0
       0
recursive listing
./.autoinstallstatus/calc.jar
./.autoinstallstatus/calc.jar--comp--JbiCalculator
./.autoinstallstatus/sns1.jar
./.autoinstallstatus/sns1.jar--sl--b3c97e99-bcb2-4ee0-95e4-60e1cf1408aa
./calc.jar
./calc.jar_installed
./sns1.jar
./sns1.jar_installed
manually reinstalling components
[i18n-echo] Installing a shared library
IGNORE [i18n-echo]   jmx connection info: (host=localhost, port=8699, secure=false, username=admin, target=server )
IGNORE [i18n-echo]   file=/blueman2/d/open-esb2/open-esb/install/as8/jbi/components/sharedlibraries/sns1.jar
[jbi-install-shared-library] Install shared library succeeded. [
[jbi-install-shared-library] b3c97e99-bcb2-4ee0-95e4-60e1cf1408aa
[jbi-install-shared-library] ]

BUILD SUCCESSFUL
IGNORE Total time: 2 seconds
[i18n-echo] Installing a component
IGNORE [i18n-echo]   jmx connection info: (host=localhost, port=8699, secure=false, username=admin, target=server )
IGNORE [i18n-echo]   file=/blueman2/d/open-esb2/open-esb/install/as8/jbi/components/jbicalc/installers/calc.jar
[jbi-list-shared-libraries] ============================================================
[jbi-list-shared-libraries]   List of Shared Libraries for Target "server"
[jbi-list-shared-libraries] ============================================================
[jbi-list-shared-libraries] Name       : b3c97e99-bcb2-4ee0-95e4-60e1cf1408aa
[jbi-list-shared-libraries] State      : Installed
[jbi-list-shared-libraries] Description: This is a shared library.
[jbi-list-shared-libraries] ------------------------------------------------------------

BUILD SUCCESSFUL
IGNORE Total time: 1 second
IGNORE File count: /blueman2/d/open-esb2/open-esb/install/jbise/jbi/server/jbi/autoinstall
       5
IGNORE File count: /blueman2/d/open-esb2/open-esb/install/jbise/jbi/server/jbi/autoinstall/.autoinstallstatus
       4
autoinstalled area success files
       2
       0
autoinstalled area failed files
       0
       0
recursive listing
./.autoinstallstatus/calc.jar
./.autoinstallstatus/calc.jar--comp--JbiCalculator
./.autoinstallstatus/sns1.jar
./.autoinstallstatus/sns1.jar--sl--b3c97e99-bcb2-4ee0-95e4-60e1cf1408aa
./calc.jar
./calc.jar_installed
./sns1.jar
./sns1.jar_installed
Copying component and shared library installers into autoinstall directory.
[jbi-list-shared-libraries] ============================================================
[jbi-list-shared-libraries]   List of Shared Libraries for Target "server"
[jbi-list-shared-libraries] ============================================================
[jbi-list-shared-libraries] Name       : b3c97e99-bcb2-4ee0-95e4-60e1cf1408aa
[jbi-list-shared-libraries] State      : Installed
[jbi-list-shared-libraries] Description: This is a shared library.
[jbi-list-shared-libraries] ------------------------------------------------------------

BUILD SUCCESSFUL
IGNORE Total time: 1 second
IGNORE File count: /blueman2/d/open-esb2/open-esb/install/jbise/jbi/server/jbi/autoinstall
       5
IGNORE File count: /blueman2/d/open-esb2/open-esb/install/jbise/jbi/server/jbi/autoinstall/.autoinstallstatus
       4
autoinstalled area success files
       2
       0
autoinstalled area failed files
       0
       0
recursive listing
./.autoinstallstatus/calc.jar
./.autoinstallstatus/calc.jar--comp--JbiCalculator
./.autoinstallstatus/sns1.jar
./.autoinstallstatus/sns1.jar--sl--b3c97e99-bcb2-4ee0-95e4-60e1cf1408aa
./calc.jar
./calc.jar_installed
./sns1.jar
./sns1.jar_installed
manually uninstalling components
[i18n-echo] Uninstalling a shared library
IGNORE [i18n-echo]   jmx connection info: (host=localhost, port=8699, secure=false, username=admin, target=server )
[i18n-echo]   name=b3c97e99-bcb2-4ee0-95e4-60e1cf1408aa
[jbi-uninstall-shared-library] Uninstall shared library succeeded. [
[jbi-uninstall-shared-library] b3c97e99-bcb2-4ee0-95e4-60e1cf1408aa
[jbi-uninstall-shared-library] ]

BUILD SUCCESSFUL
IGNORE Total time: 1 second
[i18n-echo] Uninstalling a component
IGNORE [i18n-echo]   jmx connection info: (host=localhost, port=8699, secure=false, username=admin, target=server )
[i18n-echo]   name=JbiCalculator
[jbi-list-shared-libraries] ============================================================
[jbi-list-shared-libraries]   List of Shared Libraries for Target "server"
[jbi-list-shared-libraries] ============================================================
[jbi-list-shared-libraries] There is no shared library found with the name = b3c97e99-bcb2-4ee0-95e4-60e1cf1408aa
[jbi-list-shared-libraries]  and with other query parameters specified.
[jbi-list-shared-libraries] ------------------------------------------------------------

BUILD SUCCESSFUL
IGNORE Total time: 1 second
IGNORE File count: /blueman2/d/open-esb2/open-esb/install/jbise/jbi/server/jbi/autoinstall
       5
IGNORE File count: /blueman2/d/open-esb2/open-esb/install/jbise/jbi/server/jbi/autoinstall/.autoinstallstatus
       4
autoinstalled area success files
       2
       0
autoinstalled area failed files
       0
       0
recursive listing
./.autoinstallstatus/calc.jar
./.autoinstallstatus/calc.jar--comp--JbiCalculator
./.autoinstallstatus/sns1.jar
./.autoinstallstatus/sns1.jar--sl--b3c97e99-bcb2-4ee0-95e4-60e1cf1408aa
./calc.jar
./calc.jar_installed
./sns1.jar
./sns1.jar_installed
Copying component and shared library installers into autoinstall directory.
[jbi-list-shared-libraries] ============================================================
[jbi-list-shared-libraries]   List of Shared Libraries for Target "server"
[jbi-list-shared-libraries] ============================================================
[jbi-list-shared-libraries] Name       : b3c97e99-bcb2-4ee0-95e4-60e1cf1408aa
[jbi-list-shared-libraries] State      : Installed
[jbi-list-shared-libraries] Description: This is a shared library.
[jbi-list-shared-libraries] ------------------------------------------------------------

BUILD SUCCESSFUL
IGNORE Total time: 1 second
IGNORE File count: /blueman2/d/open-esb2/open-esb/install/jbise/jbi/server/jbi/autoinstall
       5
IGNORE File count: /blueman2/d/open-esb2/open-esb/install/jbise/jbi/server/jbi/autoinstall/.autoinstallstatus
       4
autoinstalled area success files
       2
       0
autoinstalled area failed files
       0
       0
recursive listing
./.autoinstallstatus/calc.jar
./.autoinstallstatus/calc.jar--comp--JbiCalculator
./.autoinstallstatus/sns1.jar
./.autoinstallstatus/sns1.jar--sl--b3c97e99-bcb2-4ee0-95e4-60e1cf1408aa
./calc.jar
./calc.jar_installed
./sns1.jar
./sns1.jar_installed
manually uninstalling components
[i18n-echo] Uninstalling a shared library
IGNORE [i18n-echo]   jmx connection info: (host=localhost, port=8699, secure=false, username=admin, target=server )
[i18n-echo]   name=b3c97e99-bcb2-4ee0-95e4-60e1cf1408aa
[jbi-uninstall-shared-library] Uninstall shared library succeeded. [
[jbi-uninstall-shared-library] b3c97e99-bcb2-4ee0-95e4-60e1cf1408aa
[jbi-uninstall-shared-library] ]

BUILD SUCCESSFUL
IGNORE Total time: 1 second
[i18n-echo] Uninstalling a component
IGNORE [i18n-echo]   jmx connection info: (host=localhost, port=8699, secure=false, username=admin, target=server )
[i18n-echo]   name=JbiCalculator
[jbi-list-shared-libraries] ============================================================
[jbi-list-shared-libraries]   List of Shared Libraries for Target "server"
[jbi-list-shared-libraries] ============================================================
[jbi-list-shared-libraries] There is no shared library found with the name = b3c97e99-bcb2-4ee0-95e4-60e1cf1408aa
[jbi-list-shared-libraries]  and with other query parameters specified.
[jbi-list-shared-libraries] ------------------------------------------------------------

BUILD SUCCESSFUL
IGNORE Total time: 1 second
IGNORE File count: /blueman2/d/open-esb2/open-esb/install/jbise/jbi/server/jbi/autoinstall
       5
IGNORE File count: /blueman2/d/open-esb2/open-esb/install/jbise/jbi/server/jbi/autoinstall/.autoinstallstatus
       4
autoinstalled area success files
       2
       0
autoinstalled area failed files
       0
       0
recursive listing
./.autoinstallstatus/calc.jar
./.autoinstallstatus/calc.jar--comp--JbiCalculator
./.autoinstallstatus/sns1.jar
./.autoinstallstatus/sns1.jar--sl--b3c97e99-bcb2-4ee0-95e4-60e1cf1408aa
./calc.jar
./calc.jar_installed
./sns1.jar
./sns1.jar_installed
manually reinstalling components
[i18n-echo] Installing a shared library
IGNORE [i18n-echo]   jmx connection info: (host=localhost, port=8699, secure=false, username=admin, target=server )
IGNORE [i18n-echo]   file=/blueman2/d/open-esb2/open-esb/install/as8/jbi/components/sharedlibraries/sns1.jar
[jbi-install-shared-library] Install shared library succeeded. [
[jbi-install-shared-library] b3c97e99-bcb2-4ee0-95e4-60e1cf1408aa
[jbi-install-shared-library] ]

BUILD SUCCESSFUL
IGNORE Total time: 2 seconds
[i18n-echo] Installing a component
IGNORE [i18n-echo]   jmx connection info: (host=localhost, port=8699, secure=false, username=admin, target=server )
IGNORE [i18n-echo]   file=/blueman2/d/open-esb2/open-esb/install/as8/jbi/components/jbicalc/installers/calc.jar
[jbi-list-shared-libraries] ============================================================
[jbi-list-shared-libraries]   List of Shared Libraries for Target "server"
[jbi-list-shared-libraries] ============================================================
[jbi-list-shared-libraries] Name       : b3c97e99-bcb2-4ee0-95e4-60e1cf1408aa
[jbi-list-shared-libraries] State      : Installed
[jbi-list-shared-libraries] Description: This is a shared library.
[jbi-list-shared-libraries] ------------------------------------------------------------

BUILD SUCCESSFUL
IGNORE Total time: 1 second
IGNORE File count: /blueman2/d/open-esb2/open-esb/install/jbise/jbi/server/jbi/autoinstall
       5
IGNORE File count: /blueman2/d/open-esb2/open-esb/install/jbise/jbi/server/jbi/autoinstall/.autoinstallstatus
       4
autoinstalled area success files
       2
       0
autoinstalled area failed files
       0
       0
recursive listing
./.autoinstallstatus/calc.jar
./.autoinstallstatus/calc.jar--comp--JbiCalculator
./.autoinstallstatus/sns1.jar
./.autoinstallstatus/sns1.jar--sl--b3c97e99-bcb2-4ee0-95e4-60e1cf1408aa
./calc.jar
./calc.jar_installed
./sns1.jar
./sns1.jar_installed
removing installers from autoinstall directory.
[jbi-list-shared-libraries] ============================================================
[jbi-list-shared-libraries]   List of Shared Libraries for Target "server"
[jbi-list-shared-libraries] ============================================================
[jbi-list-shared-libraries] There is no shared library found with the name = b3c97e99-bcb2-4ee0-95e4-60e1cf1408aa
[jbi-list-shared-libraries]  and with other query parameters specified.
[jbi-list-shared-libraries] ------------------------------------------------------------

BUILD SUCCESSFUL
IGNORE Total time: 1 second
IGNORE File count: /blueman2/d/open-esb2/open-esb/install/jbise/jbi/server/jbi/autoinstall
       3
IGNORE File count: /blueman2/d/open-esb2/open-esb/install/jbise/jbi/server/jbi/autoinstall/.autoinstallstatus
       0
autoinstalled area success files
       0
       2
autoinstalled area failed files
       0
       0
recursive listing
./calc.jar_uninstalled
./sns1.jar_uninstalled
IGNORE Unloading JBI framework in response to VM termination.
IGNORE JBI framework shutdown complete.
IGNORE JBI framework has been unloaded.
