testname is manage00602
IGNORE JBI_HOME is C:/development/jbi/shastatools/as8/jbi
IGNORE JBI_DOMAIN_ROOT is C:/development/jbi/shastatools/as8/domains/domain1
jbi_instance_name is domain1
IGNORE jmx.provider is service:jmx:rmi:///jndi/rmi://nullset:8686/management/rmi-jmx-connector
install-uninstall of SunTransformationEngine 
installer bean is 'com.sun.jbi:JbiName=domain1,ComponentName=SunTransformationEngine,ControlType=Installer,ComponentType=Installed,InstalledType=Engine' 
install() result : 'com.sun.jbi:JbiName=domain1,ComponentName=SunTransformationEngine,ControlType=Lifecycle,ComponentType=Installed,InstalledType=Engine' 
loadInstaller() result : 'com.sun.jbi:JbiName=domain1,ComponentName=SunTransformationEngine,ControlType=Installer,ComponentType=Installed,InstalledType=Engine' 
uninstall() result : '' 
unloadInstaller() result : 'true' 
install-uninstall of SunSequencingEngine 
installer bean is 'com.sun.jbi:JbiName=domain1,ComponentName=SunSequencingEngine,ControlType=Installer,ComponentType=Installed,InstalledType=Engine' 
install() result : 'com.sun.jbi:JbiName=domain1,ComponentName=SunSequencingEngine,ControlType=Lifecycle,ComponentType=Installed,InstalledType=Engine' 
loadInstaller() result : 'com.sun.jbi:JbiName=domain1,ComponentName=SunSequencingEngine,ControlType=Installer,ComponentType=Installed,InstalledType=Engine' 
uninstall() result : '' 
unloadInstaller() result : 'true' 
install-uninstall of SunJMSBinding 
installer bean is 'com.sun.jbi:JbiName=domain1,ComponentName=SunJMSBinding,ControlType=Installer,ComponentType=Installed,InstalledType=Binding' 
install() result : 'com.sun.jbi:JbiName=domain1,ComponentName=SunJMSBinding,ControlType=Lifecycle,ComponentType=Installed,InstalledType=Binding' 
loadInstaller() result : 'com.sun.jbi:JbiName=domain1,ComponentName=SunJMSBinding,ControlType=Installer,ComponentType=Installed,InstalledType=Binding' 
uninstall() result : '' 
unloadInstaller() result : 'true' 

BUILD SUCCESSFUL
IGNORE Total time: 8 seconds
