now calling ant to install the calculator
IGNORE JBI_HOME is C:\cygwin\home\kcbabo\gfmerge\build\open-esb\install\as8/jbi
IGNORE JBI_DOMAIN_ROOT is C:/cygwin/home/kcbabo/gfmerge/build/open-esb/install/as8/domains/domain1
IGNORE jbi_instance_name is domain1
IGNORE jbi_target_name is server
IGNORE jmx.provider is service:jmx:rmi:///jndi/rmi://nullset:18686/management/rmi-jmx-connector
resultingbean is com.sun.jbi:Target=server,ServiceType=Installer,ComponentName=JbiCalculator
now invoking install() on the component.
installerresults is 'com.sun.jbi:Target=server,ServiceType=ComponentLifeCycle,ComponentName=JbiCalculator'
now unloading the component installer.
results: true
now lookup the lifecycle MBean
lifeCycle mbean is 'com.sun.jbi:Target=server,ServiceType=ComponentLifeCycle,ComponentName=JbiCalculator'
after install, calling isEngine and isBinding.
isEngine = 'true', isBinding ='false'.
now start the component
start result is ''
now stop the component
stop result is ''
now shut down the component
shut down result is ''

BUILD SUCCESSFUL
IGNORE Total time: 3 seconds
has been installed
1
has been uninstalled
0
exceptions
IGNORE 1
