IGNORE manage00321 - start_line_count=243
now calling ant to install the shared library
IGNORE JBI_HOME is C:\cygwin\home\kcbabo\gfmerge\build\open-esb\install\as8/jbi
IGNORE JBI_DOMAIN_ROOT is C:/cygwin/home/kcbabo/gfmerge/build/open-esb/install/as8/domains/domain1
IGNORE jbi_instance_name is domain1
IGNORE jbi_target_name is server
IGNORE jmx.provider is service:jmx:rmi:///jndi/rmi://nullset:18686/management/rmi-jmx-connector
IGNORE snsinstaller is file:/C:\cygwin\home\kcbabo\gfmerge\build\open-esb\install\as8/jbi/components/sharedlibraries/sns1.jar
about to invoke mbean.
results are 'b3c97e99-bcb2-4ee0-95e4-60e1cf1408aa'
after install, calling isEngine and isBinding.
isEngine = 'false', isBinding ='false'.
about to uninstall the name space.
uninstallresults is 'true'

BUILD SUCCESSFUL
IGNORE Total time: 3 seconds
Library installed
1
Library uninstalled
1
calling ant to reinstall the shared library
IGNORE JBI_HOME is C:\cygwin\home\kcbabo\gfmerge\build\open-esb\install\as8/jbi
IGNORE JBI_DOMAIN_ROOT is C:/cygwin/home/kcbabo/gfmerge/build/open-esb/install/as8/domains/domain1
IGNORE jbi_instance_name is domain1
IGNORE jbi_target_name is server
IGNORE jmx.provider is service:jmx:rmi:///jndi/rmi://nullset:18686/management/rmi-jmx-connector
IGNORE snsinstaller is file:/C:\cygwin\home\kcbabo\gfmerge\build\open-esb\install\as8/jbi/components/sharedlibraries/sns1.jar
about to invoke mbean.
results are 'b3c97e99-bcb2-4ee0-95e4-60e1cf1408aa'
after install, calling isEngine and isBinding.
isEngine = 'false', isBinding ='false'.
about to uninstall the name space.
uninstallresults is 'true'

BUILD SUCCESSFUL
IGNORE Total time: 2 seconds
Library installed
2
Library uninstalled
2
